Homework/HW1/sfp_tb.vcd
$date
	Mon Sep 27 22:24:54 2021
$end
$version
	Icarus Verilog
$end
$timescale
	1s
$end
$scope module sfp_tb $end
$var wire 16 ! out [15:0] $end
$var reg 1 " acc $end
$var reg 1 # clk $end
$var reg 16 $ expected_out [15:0] $end
$var reg 4 % in [3:0] $end
$var reg 1 & relu $end
$var reg 1 ' reset $end
$var integer 32 ( i [31:0] $end
$var integer 32 ) in_dec [31:0] $end
$var integer 32 * in_file [31:0] $end
$var integer 32 + in_scan_file [31:0] $end
$scope function dec2bin $end
$var reg 4 , dec2bin [3:0] $end
$var integer 32 - weight [31:0] $end
$upscope $end
$scope module sfp_instance $end
$var wire 1 " acc $end
$var wire 1 # clk $end
$var wire 4 . in [3:0] $end
$var wire 16 / out [15:0] $end
$var wire 1 & relu $end
$var wire 1 ' reset $end
$var wire 16 0 psum_relu [15:0] $end
$var reg 16 1 psum_q [15:0] $end
$upscope $end
$upscope $end
$enddefinitions $end
#0
$dumpvars
bx 1
bx 0
bx /
bx .
bx -
bx ,
bx +
b10000000000000000000000000000011 *
bx )
bx (
x'
x&
bx %
b0 $
0#
x"
bx !
$end
#1
0"
0&
1'
#2
b0 0
b0 !
b0 /
b0 1
1#
#3
0#
#4
1#
#5
b0 (
0'
0#
#6
1#
#7
b1 (
b1010 %
b1010 .
b1010 ,
b0 -
b1 +
b11111111111111111111111111111010 )
1"
0#
#8
b1111111111111010 !
b1111111111111010 /
b1111111111111010 1
1#
#9
b10 (
b111 %
b111 .
b111 ,
b1 -
b111 )
0#
#10
b1 0
b1 !
b1 /
b1 1
1#
#11
b11 (
b1111 %
b1111 .
b1111 ,
b1 -
b11111111111111111111111111111111 )
0#
#12
b0 0
b0 !
b0 /
b0 1
1#
#13
b100 (
b11 %
b11 .
b11 ,
b1 -
b11 )
0#
#14
b11 0
b11 !
b11 /
b11 1
1#
#15
b101 (
b1110 %
b1110 .
b1110 ,
b0 -
b11111111111111111111111111111110 )
0#
#16
b1 0
b1 !
b1 /
b1 1
1#
#17
b110 (
b0 -
0#
#18
b0 0
b1111111111111111 !
b1111111111111111 /
b1111111111111111 1
1#
#19
b111 (
b1 %
b1 .
b1 ,
b1 -
b1 )
0#
#20
b0 !
b0 /
b0 1
1#
#21
b1000 (
b100 %
b100 .
b100 ,
b0 -
b100 )
0#
#22
b100 0
b100 !
b100 /
b100 1
1#
#23
b1001 (
b1010 %
b1010 .
b1010 ,
b0 -
b11111111111111111111111111111010 )
0#
#24
b0 0
b1111111111111110 !
b1111111111111110 /
b1111111111111110 1
1#
#25
b1010 (
b1100 %
b1100 .
b1100 ,
b0 -
b11111111111111111111111111111100 )
0#
#26
b1111111111111010 !
b1111111111111010 /
b1111111111111010 1
1#
#27
1&
0"
0#
#28
b0 !
b0 /
b0 1
1#
